[gd_scene load_steps=3 format=3 uid="uid://ct6eretbis1m8"]

[ext_resource type="Script" path="res://Cat/Cat.gd" id="1_yfucu"]

[sub_resource type="CapsuleShape2D" id="CapsuleShape2D_112a8"]
radius = 44.0
height = 112.0

[node name="Cat" type="Area2D"]
script = ExtResource("1_yfucu")

[node name="CollisionShape2D" type="CollisionShape2D" parent="."]
rotation = 1.57079
shape = SubResource("CapsuleShape2D_112a8")

[node name="Graphics" type="Node2D" parent="."]

[node name="Polygon2D" type="Polygon2D" parent="Graphics"]
position = Vector2(0, 82)
color = Color(0.176471, 0.176471, 0.176471, 1)
polygon = PackedVector2Array(-23, -125, -9, -100, 8, -100, 22, -125, 37, -98, 54, -89, 50, -63, 15, -46, 6, -36, -7, -37, -15, -46, -51, -63, -53, -89, -39, -96)
