[gd_scene load_steps=3 format=2]

[ext_resource path="res://Craft/Craft.gd" type="Script" id=1]

[sub_resource type="PrismMesh" id=1]

[node name="Craft" type="Spatial"]
script = ExtResource( 1 )

[node name="MeshInstance" type="MeshInstance" parent="."]
mesh = SubResource( 1 )
